------------------------------------------------------------------------
r915134 | scripty | 2009-01-22 13:52:51 +0000 (Thu, 22 Jan 2009) | 1 line

SVN_SILENT made messages (.desktop file)
------------------------------------------------------------------------
r919510 | scripty | 2009-02-01 08:44:34 +0000 (Sun, 01 Feb 2009) | 1 line

SVN_SILENT made messages (.desktop file)
------------------------------------------------------------------------
r920553 | scripty | 2009-02-03 08:34:57 +0000 (Tue, 03 Feb 2009) | 1 line

SVN_SILENT made messages (.desktop file)
------------------------------------------------------------------------
r924605 | scripty | 2009-02-11 08:24:24 +0000 (Wed, 11 Feb 2009) | 1 line

SVN_SILENT made messages (.desktop file)
------------------------------------------------------------------------
r925294 | pino | 2009-02-12 23:04:28 +0000 (Thu, 12 Feb 2009) | 2 lines

make it build (hopefully) when qreal != double

------------------------------------------------------------------------
r929342 | scripty | 2009-02-21 07:32:01 +0000 (Sat, 21 Feb 2009) | 1 line

SVN_SILENT made messages (.desktop file)
------------------------------------------------------------------------
