------------------------------------------------------------------------
r859355 | scripty | 2008-09-10 08:47:39 +0200 (Wed, 10 Sep 2008) | 1 line

SVN_SILENT made messages (.desktop file)
------------------------------------------------------------------------
